{
  "name": "rbx-luau-util",

  "tree": {
    "$className": "DataModel",

    "ServerScriptService": {
      "TestEZ": {
        "$path": "submodules/testez/src"
      },

      "RbxLuauUtil": {
        "$className": "Folder",
        "$path": "src",

        "tests": {
          "$className": "Folder",
          "$path": "tests"
        }
      }
    }
  }
}
